ATV1/TESTBENCH/tb_DMux4Way16.vcd
$date
	Wed Mar 29 16:32:26 2023
$end
$version
	Icarus Verilog
$end
$timescale
	1s
$end
$scope module tb_DMux4Way16 $end
$var wire 16 ! d [15:0] $end
$var wire 16 " c [15:0] $end
$var wire 16 # b [15:0] $end
$var wire 16 $ a [15:0] $end
$var reg 16 % in [15:0] $end
$var reg 2 & sel [1:0] $end
$scope module mymodule $end
$var wire 16 ' in [15:0] $end
$var wire 2 ( sel [1:0] $end
$var wire 16 ) d [15:0] $end
$var wire 16 * c [15:0] $end
$var wire 16 + b [15:0] $end
$var wire 16 , a [15:0] $end
$scope module m0 $end
$var wire 1 - in $end
$var wire 2 . sel [1:0] $end
$var wire 1 / w2 $end
$var wire 1 0 w1 $end
$var wire 1 1 d $end
$var wire 1 2 c $end
$var wire 1 3 b $end
$var wire 1 4 a $end
$scope module dmux0 $end
$var wire 1 4 a $end
$var wire 1 3 b $end
$var wire 1 5 sel $end
$var wire 1 6 w1 $end
$var wire 1 0 in $end
$upscope $end
$scope module dmux1 $end
$var wire 1 2 a $end
$var wire 1 1 b $end
$var wire 1 7 sel $end
$var wire 1 8 w1 $end
$var wire 1 / in $end
$upscope $end
$scope module dmux2 $end
$var wire 1 0 a $end
$var wire 1 / b $end
$var wire 1 - in $end
$var wire 1 9 sel $end
$var wire 1 : w1 $end
$upscope $end
$upscope $end
$scope module m1 $end
$var wire 1 ; in $end
$var wire 2 < sel [1:0] $end
$var wire 1 = w2 $end
$var wire 1 > w1 $end
$var wire 1 ? d $end
$var wire 1 @ c $end
$var wire 1 A b $end
$var wire 1 B a $end
$scope module dmux0 $end
$var wire 1 B a $end
$var wire 1 A b $end
$var wire 1 C sel $end
$var wire 1 D w1 $end
$var wire 1 > in $end
$upscope $end
$scope module dmux1 $end
$var wire 1 @ a $end
$var wire 1 ? b $end
$var wire 1 E sel $end
$var wire 1 F w1 $end
$var wire 1 = in $end
$upscope $end
$scope module dmux2 $end
$var wire 1 > a $end
$var wire 1 = b $end
$var wire 1 ; in $end
$var wire 1 G sel $end
$var wire 1 H w1 $end
$upscope $end
$upscope $end
$scope module m10 $end
$var wire 1 I in $end
$var wire 2 J sel [1:0] $end
$var wire 1 K w2 $end
$var wire 1 L w1 $end
$var wire 1 M d $end
$var wire 1 N c $end
$var wire 1 O b $end
$var wire 1 P a $end
$scope module dmux0 $end
$var wire 1 P a $end
$var wire 1 O b $end
$var wire 1 Q sel $end
$var wire 1 R w1 $end
$var wire 1 L in $end
$upscope $end
$scope module dmux1 $end
$var wire 1 N a $end
$var wire 1 M b $end
$var wire 1 S sel $end
$var wire 1 T w1 $end
$var wire 1 K in $end
$upscope $end
$scope module dmux2 $end
$var wire 1 L a $end
$var wire 1 K b $end
$var wire 1 I in $end
$var wire 1 U sel $end
$var wire 1 V w1 $end
$upscope $end
$upscope $end
$scope module m11 $end
$var wire 1 W in $end
$var wire 2 X sel [1:0] $end
$var wire 1 Y w2 $end
$var wire 1 Z w1 $end
$var wire 1 [ d $end
$var wire 1 \ c $end
$var wire 1 ] b $end
$var wire 1 ^ a $end
$scope module dmux0 $end
$var wire 1 ^ a $end
$var wire 1 ] b $end
$var wire 1 _ sel $end
$var wire 1 ` w1 $end
$var wire 1 Z in $end
$upscope $end
$scope module dmux1 $end
$var wire 1 \ a $end
$var wire 1 [ b $end
$var wire 1 a sel $end
$var wire 1 b w1 $end
$var wire 1 Y in $end
$upscope $end
$scope module dmux2 $end
$var wire 1 Z a $end
$var wire 1 Y b $end
$var wire 1 W in $end
$var wire 1 c sel $end
$var wire 1 d w1 $end
$upscope $end
$upscope $end
$scope module m12 $end
$var wire 1 e in $end
$var wire 2 f sel [1:0] $end
$var wire 1 g w2 $end
$var wire 1 h w1 $end
$var wire 1 i d $end
$var wire 1 j c $end
$var wire 1 k b $end
$var wire 1 l a $end
$scope module dmux0 $end
$var wire 1 l a $end
$var wire 1 k b $end
$var wire 1 m sel $end
$var wire 1 n w1 $end
$var wire 1 h in $end
$upscope $end
$scope module dmux1 $end
$var wire 1 j a $end
$var wire 1 i b $end
$var wire 1 o sel $end
$var wire 1 p w1 $end
$var wire 1 g in $end
$upscope $end
$scope module dmux2 $end
$var wire 1 h a $end
$var wire 1 g b $end
$var wire 1 e in $end
$var wire 1 q sel $end
$var wire 1 r w1 $end
$upscope $end
$upscope $end
$scope module m13 $end
$var wire 1 s in $end
$var wire 2 t sel [1:0] $end
$var wire 1 u w2 $end
$var wire 1 v w1 $end
$var wire 1 w d $end
$var wire 1 x c $end
$var wire 1 y b $end
$var wire 1 z a $end
$scope module dmux0 $end
$var wire 1 z a $end
$var wire 1 y b $end
$var wire 1 { sel $end
$var wire 1 | w1 $end
$var wire 1 v in $end
$upscope $end
$scope module dmux1 $end
$var wire 1 x a $end
$var wire 1 w b $end
$var wire 1 } sel $end
$var wire 1 ~ w1 $end
$var wire 1 u in $end
$upscope $end
$scope module dmux2 $end
$var wire 1 v a $end
$var wire 1 u b $end
$var wire 1 s in $end
$var wire 1 !" sel $end
$var wire 1 "" w1 $end
$upscope $end
$upscope $end
$scope module m14 $end
$var wire 1 #" in $end
$var wire 2 $" sel [1:0] $end
$var wire 1 %" w2 $end
$var wire 1 &" w1 $end
$var wire 1 '" d $end
$var wire 1 (" c $end
$var wire 1 )" b $end
$var wire 1 *" a $end
$scope module dmux0 $end
$var wire 1 *" a $end
$var wire 1 )" b $end
$var wire 1 +" sel $end
$var wire 1 ," w1 $end
$var wire 1 &" in $end
$upscope $end
$scope module dmux1 $end
$var wire 1 (" a $end
$var wire 1 '" b $end
$var wire 1 -" sel $end
$var wire 1 ." w1 $end
$var wire 1 %" in $end
$upscope $end
$scope module dmux2 $end
$var wire 1 &" a $end
$var wire 1 %" b $end
$var wire 1 #" in $end
$var wire 1 /" sel $end
$var wire 1 0" w1 $end
$upscope $end
$upscope $end
$scope module m15 $end
$var wire 1 1" in $end
$var wire 2 2" sel [1:0] $end
$var wire 1 3" w2 $end
$var wire 1 4" w1 $end
$var wire 1 5" d $end
$var wire 1 6" c $end
$var wire 1 7" b $end
$var wire 1 8" a $end
$scope module dmux0 $end
$var wire 1 8" a $end
$var wire 1 7" b $end
$var wire 1 9" sel $end
$var wire 1 :" w1 $end
$var wire 1 4" in $end
$upscope $end
$scope module dmux1 $end
$var wire 1 6" a $end
$var wire 1 5" b $end
$var wire 1 ;" sel $end
$var wire 1 <" w1 $end
$var wire 1 3" in $end
$upscope $end
$scope module dmux2 $end
$var wire 1 4" a $end
$var wire 1 3" b $end
$var wire 1 1" in $end
$var wire 1 =" sel $end
$var wire 1 >" w1 $end
$upscope $end
$upscope $end
$scope module m2 $end
$var wire 1 ?" in $end
$var wire 2 @" sel [1:0] $end
$var wire 1 A" w2 $end
$var wire 1 B" w1 $end
$var wire 1 C" d $end
$var wire 1 D" c $end
$var wire 1 E" b $end
$var wire 1 F" a $end
$scope module dmux0 $end
$var wire 1 F" a $end
$var wire 1 E" b $end
$var wire 1 G" sel $end
$var wire 1 H" w1 $end
$var wire 1 B" in $end
$upscope $end
$scope module dmux1 $end
$var wire 1 D" a $end
$var wire 1 C" b $end
$var wire 1 I" sel $end
$var wire 1 J" w1 $end
$var wire 1 A" in $end
$upscope $end
$scope module dmux2 $end
$var wire 1 B" a $end
$var wire 1 A" b $end
$var wire 1 ?" in $end
$var wire 1 K" sel $end
$var wire 1 L" w1 $end
$upscope $end
$upscope $end
$scope module m3 $end
$var wire 1 M" in $end
$var wire 2 N" sel [1:0] $end
$var wire 1 O" w2 $end
$var wire 1 P" w1 $end
$var wire 1 Q" d $end
$var wire 1 R" c $end
$var wire 1 S" b $end
$var wire 1 T" a $end
$scope module dmux0 $end
$var wire 1 T" a $end
$var wire 1 S" b $end
$var wire 1 U" sel $end
$var wire 1 V" w1 $end
$var wire 1 P" in $end
$upscope $end
$scope module dmux1 $end
$var wire 1 R" a $end
$var wire 1 Q" b $end
$var wire 1 W" sel $end
$var wire 1 X" w1 $end
$var wire 1 O" in $end
$upscope $end
$scope module dmux2 $end
$var wire 1 P" a $end
$var wire 1 O" b $end
$var wire 1 M" in $end
$var wire 1 Y" sel $end
$var wire 1 Z" w1 $end
$upscope $end
$upscope $end
$scope module m4 $end
$var wire 1 [" in $end
$var wire 2 \" sel [1:0] $end
$var wire 1 ]" w2 $end
$var wire 1 ^" w1 $end
$var wire 1 _" d $end
$var wire 1 `" c $end
$var wire 1 a" b $end
$var wire 1 b" a $end
$scope module dmux0 $end
$var wire 1 b" a $end
$var wire 1 a" b $end
$var wire 1 c" sel $end
$var wire 1 d" w1 $end
$var wire 1 ^" in $end
$upscope $end
$scope module dmux1 $end
$var wire 1 `" a $end
$var wire 1 _" b $end
$var wire 1 e" sel $end
$var wire 1 f" w1 $end
$var wire 1 ]" in $end
$upscope $end
$scope module dmux2 $end
$var wire 1 ^" a $end
$var wire 1 ]" b $end
$var wire 1 [" in $end
$var wire 1 g" sel $end
$var wire 1 h" w1 $end
$upscope $end
$upscope $end
$scope module m5 $end
$var wire 1 i" in $end
$var wire 2 j" sel [1:0] $end
$var wire 1 k" w2 $end
$var wire 1 l" w1 $end
$var wire 1 m" d $end
$var wire 1 n" c $end
$var wire 1 o" b $end
$var wire 1 p" a $end
$scope module dmux0 $end
$var wire 1 p" a $end
$var wire 1 o" b $end
$var wire 1 q" sel $end
$var wire 1 r" w1 $end
$var wire 1 l" in $end
$upscope $end
$scope module dmux1 $end
$var wire 1 n" a $end
$var wire 1 m" b $end
$var wire 1 s" sel $end
$var wire 1 t" w1 $end
$var wire 1 k" in $end
$upscope $end
$scope module dmux2 $end
$var wire 1 l" a $end
$var wire 1 k" b $end
$var wire 1 i" in $end
$var wire 1 u" sel $end
$var wire 1 v" w1 $end
$upscope $end
$upscope $end
$scope module m6 $end
$var wire 1 w" in $end
$var wire 2 x" sel [1:0] $end
$var wire 1 y" w2 $end
$var wire 1 z" w1 $end
$var wire 1 {" d $end
$var wire 1 |" c $end
$var wire 1 }" b $end
$var wire 1 ~" a $end
$scope module dmux0 $end
$var wire 1 ~" a $end
$var wire 1 }" b $end
$var wire 1 !# sel $end
$var wire 1 "# w1 $end
$var wire 1 z" in $end
$upscope $end
$scope module dmux1 $end
$var wire 1 |" a $end
$var wire 1 {" b $end
$var wire 1 ## sel $end
$var wire 1 $# w1 $end
$var wire 1 y" in $end
$upscope $end
$scope module dmux2 $end
$var wire 1 z" a $end
$var wire 1 y" b $end
$var wire 1 w" in $end
$var wire 1 %# sel $end
$var wire 1 &# w1 $end
$upscope $end
$upscope $end
$scope module m7 $end
$var wire 1 '# in $end
$var wire 2 (# sel [1:0] $end
$var wire 1 )# w2 $end
$var wire 1 *# w1 $end
$var wire 1 +# d $end
$var wire 1 ,# c $end
$var wire 1 -# b $end
$var wire 1 .# a $end
$scope module dmux0 $end
$var wire 1 .# a $end
$var wire 1 -# b $end
$var wire 1 /# sel $end
$var wire 1 0# w1 $end
$var wire 1 *# in $end
$upscope $end
$scope module dmux1 $end
$var wire 1 ,# a $end
$var wire 1 +# b $end
$var wire 1 1# sel $end
$var wire 1 2# w1 $end
$var wire 1 )# in $end
$upscope $end
$scope module dmux2 $end
$var wire 1 *# a $end
$var wire 1 )# b $end
$var wire 1 '# in $end
$var wire 1 3# sel $end
$var wire 1 4# w1 $end
$upscope $end
$upscope $end
$scope module m8 $end
$var wire 1 5# in $end
$var wire 2 6# sel [1:0] $end
$var wire 1 7# w2 $end
$var wire 1 8# w1 $end
$var wire 1 9# d $end
$var wire 1 :# c $end
$var wire 1 ;# b $end
$var wire 1 <# a $end
$scope module dmux0 $end
$var wire 1 <# a $end
$var wire 1 ;# b $end
$var wire 1 =# sel $end
$var wire 1 ># w1 $end
$var wire 1 8# in $end
$upscope $end
$scope module dmux1 $end
$var wire 1 :# a $end
$var wire 1 9# b $end
$var wire 1 ?# sel $end
$var wire 1 @# w1 $end
$var wire 1 7# in $end
$upscope $end
$scope module dmux2 $end
$var wire 1 8# a $end
$var wire 1 7# b $end
$var wire 1 5# in $end
$var wire 1 A# sel $end
$var wire 1 B# w1 $end
$upscope $end
$upscope $end
$scope module m9 $end
$var wire 1 C# in $end
$var wire 2 D# sel [1:0] $end
$var wire 1 E# w2 $end
$var wire 1 F# w1 $end
$var wire 1 G# d $end
$var wire 1 H# c $end
$var wire 1 I# b $end
$var wire 1 J# a $end
$scope module dmux0 $end
$var wire 1 J# a $end
$var wire 1 I# b $end
$var wire 1 K# sel $end
$var wire 1 L# w1 $end
$var wire 1 F# in $end
$upscope $end
$scope module dmux1 $end
$var wire 1 H# a $end
$var wire 1 G# b $end
$var wire 1 M# sel $end
$var wire 1 N# w1 $end
$var wire 1 E# in $end
$upscope $end
$scope module dmux2 $end
$var wire 1 F# a $end
$var wire 1 E# b $end
$var wire 1 C# in $end
$var wire 1 O# sel $end
$var wire 1 P# w1 $end
$upscope $end
$upscope $end
$upscope $end
$upscope $end
$enddefinitions $end
$comment Show the parameter values. $end
$dumpall
$end
#0
$dumpvars
1P#
0O#
1N#
0M#
1L#
0K#
0J#
0I#
0H#
0G#
0F#
0E#
b0 D#
0C#
1B#
0A#
1@#
0?#
1>#
0=#
0<#
0;#
0:#
09#
08#
07#
b0 6#
05#
14#
03#
12#
01#
10#
0/#
0.#
0-#
0,#
0+#
0*#
0)#
b0 (#
0'#
1&#
0%#
1$#
0##
1"#
0!#
0~"
0}"
0|"
0{"
0z"
0y"
b0 x"
0w"
1v"
0u"
1t"
0s"
1r"
0q"
0p"
0o"
0n"
0m"
0l"
0k"
b0 j"
0i"
1h"
0g"
1f"
0e"
1d"
0c"
0b"
0a"
0`"
0_"
0^"
0]"
b0 \"
0["
1Z"
0Y"
1X"
0W"
1V"
0U"
0T"
0S"
0R"
0Q"
0P"
0O"
b0 N"
0M"
1L"
0K"
1J"
0I"
1H"
0G"
0F"
0E"
0D"
0C"
0B"
0A"
b0 @"
0?"
1>"
0="
1<"
0;"
1:"
09"
08"
07"
06"
05"
04"
03"
b0 2"
01"
10"
0/"
1."
0-"
1,"
0+"
0*"
0)"
0("
0'"
0&"
0%"
b0 $"
0#"
1""
0!"
1~
0}
1|
0{
0z
0y
0x
0w
0v
0u
b0 t
0s
1r
0q
1p
0o
1n
0m
0l
0k
0j
0i
0h
0g
b0 f
0e
1d
0c
1b
0a
1`
0_
0^
0]
0\
0[
0Z
0Y
b0 X
0W
1V
0U
1T
0S
1R
0Q
0P
0O
0N
0M
0L
0K
b0 J
0I
1H
0G
1F
0E
1D
0C
0B
0A
0@
0?
0>
0=
b0 <
0;
1:
09
18
07
16
05
04
03
02
01
00
0/
b0 .
0-
b0 ,
b0 +
b0 *
b0 )
b0 (
b0 '
b0 &
b0 %
b0 $
b0 #
b0 "
b0 !
$end
#1
06
08
1A
0D
0F
0R
0T
0`
0b
0n
0p
0|
0~
0,"
0."
0:"
0<"
0H"
0J"
1S"
0V"
0X"
1a"
0d"
0f"
1o"
0r"
0t"
0"#
0$#
00#
02#
1;#
0>#
0@#
b1100111010 #
b1100111010 +
1I#
0L#
0N#
1>
1P"
1^"
1l"
18#
1F#
15
17
1C
1E
1Q
1S
1_
1a
1m
1o
1{
1}
1+"
1-"
19"
1;"
1G"
1I"
1U"
1W"
1c"
1e"
1q"
1s"
1!#
1##
1/#
11#
1=#
1?#
1K#
1M#
1;
1M"
1["
1i"
15#
1C#
b1 &
b1 (
b1 .
b1 <
b1 J
b1 X
b1 f
b1 t
b1 $"
b1 2"
b1 @"
b1 N"
b1 \"
b1 j"
b1 x"
b1 (#
b1 6#
b1 D#
b1100111010 %
b1100111010 '
#2
1@
0>
1n"
0l"
1D"
0F"
b10000100110 "
b10000100110 *
1N
b0 $
b0 ,
0P
16
18
0:
0A
1D
1F
1=
0H
1R
1T
0V
1`
1b
0d
1n
1p
0r
1|
1~
0""
1,"
1."
00"
1:"
1<"
0>"
1H"
1J"
0L"
0S"
1V"
1X"
0Z"
0a"
1d"
1f"
0h"
0o"
1r"
1t"
1k"
0v"
1"#
1$#
0&#
10#
12#
04#
0;#
1>#
1@#
0B#
b0 #
b0 +
0I#
1L#
1N#
0P#
1A"
0B"
0P"
0^"
08#
0F#
1K
0L
05
07
19
0C
0E
1G
0Q
0S
1U
0_
0a
1c
0m
0o
1q
0{
0}
1!"
0+"
0-"
1/"
09"
0;"
1="
0G"
0I"
1K"
0U"
0W"
1Y"
0c"
0e"
1g"
0q"
0s"
1u"
0!#
0##
1%#
0/#
01#
13#
0=#
0?#
1A#
0K#
0M#
1O#
1?"
0M"
0["
05#
0C#
1I
b10 &
b10 (
b10 .
b10 <
b10 J
b10 X
b10 f
b10 t
b10 $"
b10 2"
b10 @"
b10 N"
b10 \"
b10 j"
b10 x"
b10 (#
b10 6#
b10 D#
b10000100110 %
b10000100110 '
#3
13
1A
1O
1]
1k
1E"
1a"
1-#
b1110110010111 #
b1110110010111 +
1;#
10
0@
1>
0N
1L
1Z
1h
0D"
1B"
1^"
1*#
18#
b0 "
b0 *
0n"
06
08
1:
0D
0F
0=
1H
0R
0T
0K
1V
0`
0b
1d
0n
0p
1r
0|
0~
1""
0,"
0."
10"
0:"
0<"
1>"
0H"
0J"
0A"
1L"
0V"
0X"
1Z"
0d"
0f"
1h"
0r"
0t"
1v"
0"#
0$#
1&#
00#
02#
14#
0>#
0@#
1B#
0L#
0N#
1P#
0k"
15
17
09
1C
1E
0G
1Q
1S
0U
1_
1a
0c
1m
1o
0q
1{
1}
0!"
1+"
1-"
0/"
19"
1;"
0="
1G"
1I"
0K"
1U"
1W"
0Y"
1c"
1e"
0g"
1q"
1s"
0u"
1!#
1##
0%#
1/#
11#
03#
1=#
1?#
0A#
1K#
1M#
0O#
1-
1["
0i"
1'#
15#
1W
1e
b1 &
b1 (
b1 .
b1 <
b1 J
b1 X
b1 f
b1 t
b1 $"
b1 2"
b1 @"
b1 N"
b1 \"
b1 j"
b1 x"
b1 (#
b1 6#
b1 D#
b1110110010111 %
b1110110010111 '
#4
0A
0E"
1S"
1}"
0-#
1I#
0O
0]
0k
b10001101011001 #
b10001101011001 +
1y
0>
0B"
1P"
1z"
0*#
1F#
0L
0Z
0h
1v
0;
0?"
1M"
1w"
0'#
1C#
0I
0W
0e
1s
b10001101011001 %
b10001101011001 '
#5
1z
1~"
1<#
1J#
1p"
1.#
b10011111100000 $
b10011111100000 ,
1P
03
16
18
1D
1F
1R
1T
1`
1b
1n
1p
0y
1|
1~
1,"
1."
1:"
1<"
1H"
1J"
0S"
1V"
1X"
0a"
1d"
1f"
1r"
1t"
0}"
1"#
1$#
10#
12#
0;#
1>#
1@#
b0 #
b0 +
0I#
1L#
1N#
00
0P"
0^"
1l"
1*#
1L
05
07
0C
0E
0Q
0S
0_
0a
0m
0o
0{
0}
0+"
0-"
09"
0;"
0G"
0I"
0U"
0W"
0c"
0e"
0q"
0s"
0!#
0##
0/#
01#
0=#
0?#
0K#
0M#
0-
0M"
0["
1i"
1'#
1I
b0 &
b0 (
b0 .
b0 <
b0 J
b0 X
b0 f
b0 t
b0 $"
b0 2"
b0 @"
b0 N"
b0 \"
b0 j"
b0 x"
b0 (#
b0 6#
b0 D#
b10011111100000 %
b10011111100000 '
#6
0P
0z
0J#
1N
0L
1x
0v
1H#
0F#
12
04
0p"
0~"
0.#
0<#
b10111000000001 "
b10111000000001 *
1\
b0 $
b0 ,
0^
0:
0H
1K
0V
0d
0r
1u
0""
00"
0>"
0L"
0Z"
0h"
0v"
0&#
04#
0B#
1E#
0P#
1/
00
0l"
0z"
0*#
08#
1Y
0Z
19
1G
1U
1c
1q
1!"
1/"
1="
1K"
1Y"
1g"
1u"
1%#
13#
1A#
1O#
1-
0i"
0w"
0'#
05#
1W
b10 &
b10 (
b10 .
b10 <
b10 J
b10 X
b10 f
b10 t
b10 $"
b10 2"
b10 @"
b10 N"
b10 \"
b10 j"
b10 x"
b10 (#
b10 6#
b10 D#
b10111000000001 %
b10111000000001 '
#7
1D"
1n"
1|"
1:#
0H#
0N
b11100101100101 "
b11100101100101 *
1j
1A"
1k"
1y"
17#
0E#
0K
1g
1?"
1i"
1w"
15#
0C#
0I
1e
b11100101100101 %
b11100101100101 '
#8
02
0\
0j
0x
0D"
0|"
0n"
b0 "
b0 *
0:#
06
11
08
0D
1?
0F
0R
1M
0T
0`
1[
0b
0n
1i
0p
0|
1w
0~
0,"
0."
0:"
0<"
0H"
1C"
0J"
0V"
1Q"
0X"
0d"
0f"
0r"
0t"
0"#
1{"
0$#
00#
b11110011001111 !
b11110011001111 )
1+#
02#
0>#
0@#
0L#
0N#
1=
1O"
0k"
1)#
07#
1K
15
17
1C
1E
1Q
1S
1_
1a
1m
1o
1{
1}
1+"
1-"
19"
1;"
1G"
1I"
1U"
1W"
1c"
1e"
1q"
1s"
1!#
1##
1/#
11#
1=#
1?#
1K#
1M#
1;
1M"
0i"
1'#
05#
1I
b11 &
b11 (
b11 .
b11 <
b11 J
b11 X
b11 f
b11 t
b11 $"
b11 2"
b11 @"
b11 N"
b11 \"
b11 j"
b11 x"
b11 (#
b11 6#
b11 D#
b11110011001111 %
b11110011001111 '
#9
1^
1Z
1*"
1&"
1p"
1l"
1.#
1*#
b100100110100000 $
b100100110100000 ,
1<#
18#
16
01
18
1:
1D
0?
1F
1H
1R
0M
1T
1V
1`
0[
1b
0Y
1d
1n
0i
1p
1r
1|
0w
1~
1""
1,"
1."
10"
1:"
1<"
1>"
1H"
0C"
1J"
1L"
1V"
0Q"
1X"
1Z"
1d"
1f"
1h"
1r"
1t"
1v"
1"#
0{"
1$#
1&#
10#
b0 !
b0 )
0+#
12#
0)#
14#
1>#
1@#
1B#
1L#
1N#
1P#
0/
0=
0A"
0O"
0y"
0K
0g
0u
05
07
09
0C
0E
0G
0Q
0S
0U
0_
0a
0c
0m
0o
0q
0{
0}
0!"
0+"
0-"
0/"
09"
0;"
0="
0G"
0I"
0K"
0U"
0W"
0Y"
0c"
0e"
0g"
0q"
0s"
0u"
0!#
0##
0%#
0/#
01#
03#
0=#
0?#
0A#
0K#
0M#
0O#
0-
0;
0?"
0M"
1i"
0w"
15#
0I
0e
0s
1#"
b0 &
b0 (
b0 .
b0 <
b0 J
b0 X
b0 f
b0 t
b0 $"
b0 2"
b0 @"
b0 N"
b0 \"
b0 j"
b0 x"
b0 (#
b0 6#
b0 D#
b100100110100000 %
b100100110100000 '
#10
0^
0*"
0p"
0.#
b0 $
b0 ,
0<#
06
08
1A
0D
0F
1O
0R
0T
1]
0`
0b
0n
0p
0|
0~
1)"
0,"
0."
0:"
0<"
0H"
0J"
1S"
0V"
0X"
0d"
0f"
1o"
0r"
0t"
0"#
0$#
1-#
00#
02#
0>#
0@#
b100111010101010 #
b100111010101010 +
1I#
0L#
0N#
1>
1P"
08#
1F#
1L
15
17
1C
1E
1Q
1S
1_
1a
1m
1o
1{
1}
1+"
1-"
19"
1;"
1G"
1I"
1U"
1W"
1c"
1e"
1q"
1s"
1!#
1##
1/#
11#
1=#
1?#
1K#
1M#
1;
1M"
05#
1C#
1I
b1 &
b1 (
b1 .
b1 <
b1 J
b1 X
b1 f
b1 t
b1 $"
b1 2"
b1 @"
b1 N"
b1 \"
b1 j"
b1 x"
b1 (#
b1 6#
b1 D#
b100111010101010 %
b100111010101010 '
#11
1B
1^
1*"
1p"
1F"
b101100000100110 $
b101100000100110 ,
1l
16
18
0A
1D
1F
0O
1R
1T
0]
1`
1b
1n
1p
1|
1~
0)"
1,"
1."
1:"
1<"
1H"
1J"
0S"
1V"
1X"
1d"
1f"
0o"
1r"
1t"
1"#
1$#
0-#
10#
12#
1>#
1@#
b0 #
b0 +
0I#
1L#
1N#
1B"
0P"
0*#
0F#
0L
1h
05
07
0C
0E
0Q
0S
0_
0a
0m
0o
0{
0}
0+"
0-"
09"
0;"
0G"
0I"
0U"
0W"
0c"
0e"
0q"
0s"
0!#
0##
0/#
01#
0=#
0?#
0K#
0M#
1?"
0M"
0'#
0C#
0I
1e
b0 &
b0 (
b0 .
b0 <
b0 J
b0 X
b0 f
b0 t
b0 $"
b0 2"
b0 @"
b0 N"
b0 \"
b0 j"
b0 x"
b0 (#
b0 6#
b0 D#
b101100000100110 %
b101100000100110 '
#12
0^
0Z
0l
0h
0*"
0&"
0F"
0B"
0p"
0l"
b0 $
b0 ,
0B
03
06
11
08
0:
0D
0F
0H
0O
0R
1M
0T
0V
0]
0`
1[
0b
1Y
0d
0k
0n
1i
0p
1g
0r
0|
0~
0""
0)"
0,"
1'"
0."
1%"
00"
0:"
0<"
0>"
0E"
0H"
1C"
0J"
1A"
0L"
0S"
0V"
1Q"
0X"
0Z"
0d"
0f"
0h"
0o"
0r"
1m"
0t"
1k"
0v"
0"#
0$#
0&#
0-#
00#
1+#
02#
04#
0;#
0>#
19#
0@#
0B#
b0 #
b0 +
0I#
0L#
b101111110101101 !
b101111110101101 )
1G#
0N#
0P#
1/
00
0>
1O"
0P"
1)#
0*#
17#
08#
1E#
0F#
1K
0L
15
17
19
1C
1E
1G
1Q
1S
1U
1_
1a
1c
1m
1o
1q
1{
1}
1!"
1+"
1-"
1/"
19"
1;"
1="
1G"
1I"
1K"
1U"
1W"
1Y"
1c"
1e"
1g"
1q"
1s"
1u"
1!#
1##
1%#
1/#
11#
13#
1=#
1?#
1A#
1K#
1M#
1O#
1-
0;
1M"
1'#
15#
1C#
1I
b11 &
b11 (
b11 .
b11 <
b11 J
b11 X
b11 f
b11 t
b11 $"
b11 2"
b11 @"
b11 N"
b11 \"
b11 j"
b11 x"
b11 (#
b11 6#
b11 D#
b101111110101101 %
b101111110101101 '
#13
13
1]
1y
1)"
1E"
1a"
1o"
1-#
1;#
b110101110110101 #
b110101110110101 +
1I#
01
10
0[
1Z
1v
0'"
1&"
0C"
1B"
1^"
0m"
1l"
0+#
1*#
09#
18#
0G#
1F#
0Q"
0M
b0 !
b0 )
0i
0/
1:
1H
1V
0Y
1d
1r
1""
0%"
10"
1>"
0A"
1L"
1Z"
1h"
0k"
1v"
1&#
0)#
14#
07#
1B#
0E#
1P#
0O"
0K
0g
09
0G
0U
0c
0q
0!"
0/"
0="
0K"
0Y"
0g"
0u"
0%#
03#
0A#
0O#
0M"
1["
0I
0e
1s
b1 &
b1 (
b1 .
b1 <
b1 J
b1 X
b1 f
b1 t
b1 $"
b1 2"
b1 @"
b1 N"
b1 \"
b1 j"
b1 x"
b1 (#
b1 6#
b1 D#
b110101110110101 %
b110101110110101 '
#14
12
00
1\
0Z
1x
0v
1("
0&"
1`"
0^"
1,#
0*#
1H#
0F#
1@
0B
1R"
0T"
b110111010011011 "
b110111010011011 *
1N
b0 $
b0 ,
0P
03
16
18
1/
0:
1D
1F
0H
1R
1T
0V
0]
1`
1b
1Y
0d
1n
1p
0r
0y
1|
1~
1u
0""
0)"
1,"
1."
1%"
00"
1:"
1<"
0>"
0E"
1H"
1J"
0L"
1V"
1X"
0Z"
0a"
1d"
1f"
1]"
0h"
0o"
1r"
1t"
0v"
1"#
1$#
0&#
0-#
10#
12#
1)#
04#
0;#
1>#
1@#
0B#
b0 #
b0 +
0I#
1L#
1N#
1E#
0P#
1=
0>
0B"
1O"
0P"
0l"
08#
1K
0L
05
07
19
0C
0E
1G
0Q
0S
1U
0_
0a
1c
0m
0o
1q
0{
0}
1!"
0+"
0-"
1/"
09"
0;"
1="
0G"
0I"
1K"
0U"
0W"
1Y"
0c"
0e"
1g"
0q"
0s"
1u"
0!#
0##
1%#
0/#
01#
13#
0=#
0?#
1A#
0K#
0M#
1O#
1;
0?"
1M"
0i"
05#
1I
b10 &
b10 (
b10 .
b10 <
b10 J
b10 X
b10 f
b10 t
b10 $"
b10 2"
b10 @"
b10 N"
b10 \"
b10 j"
b10 x"
b10 (#
b10 6#
b10 D#
b110111010011011 %
b110111010011011 '
#15
02
0@
0N
0\
0x
0("
0`"
0H#
0R"
b0 "
b0 *
0,#
06
11
08
0D
1?
0F
0R
1M
0T
0`
1[
0b
0n
1i
0p
0|
1w
0~
0,"
1'"
0."
0:"
0<"
0H"
1C"
0J"
0V"
0X"
0d"
1_"
0f"
0r"
1m"
0t"
0"#
0$#
00#
02#
0>#
19#
0@#
0L#
b111111100110111 !
b111111100110111 )
1G#
0N#
1A"
0O"
1k"
0)#
17#
1g
15
17
1C
1E
1Q
1S
1_
1a
1m
1o
1{
1}
1+"
1-"
19"
1;"
1G"
1I"
1U"
1W"
1c"
1e"
1q"
1s"
1!#
1##
1/#
11#
1=#
1?#
1K#
1M#
1?"
0M"
1i"
0'#
15#
1e
b11 &
b11 (
b11 .
b11 <
b11 J
b11 X
b11 f
b11 t
b11 $"
b11 2"
b11 @"
b11 N"
b11 \"
b11 j"
b11 x"
b11 (#
b11 6#
b11 D#
b111111100110111 %
b111111100110111 '
#16
01
1Q"
0_"
0m"
1+#
0G#
0M
0[
0i
0w
0'"
b1000000110001110 !
b1000000110001110 )
15"
0/
1O"
0]"
0k"
1)#
0E#
0K
0Y
0g
0u
0%"
13"
0-
1M"
0["
0i"
1'#
0C#
0I
0W
0e
0s
0#"
11"
b1000000110001110 %
b1000000110001110 '
