ATV1/TESTBENCH/tb_Mux4Way16.vcd
$date
	Wed Mar 29 16:31:47 2023
$end
$version
	Icarus Verilog
$end
$timescale
	1s
$end
$scope module tb_Mux4Way16 $end
$var wire 16 ! out [15:0] $end
$var reg 16 " a [15:0] $end
$var reg 16 # b [15:0] $end
$var reg 16 $ c [15:0] $end
$var reg 16 % d [15:0] $end
$var reg 2 & sel [1:0] $end
$scope module mymodule $end
$var wire 16 ' a [15:0] $end
$var wire 16 ( b [15:0] $end
$var wire 16 ) c [15:0] $end
$var wire 16 * d [15:0] $end
$var wire 2 + sel [1:0] $end
$var wire 16 , out [15:0] $end
$scope module m0 $end
$var wire 1 - a $end
$var wire 1 . b $end
$var wire 1 / c $end
$var wire 1 0 d $end
$var wire 2 1 sel [1:0] $end
$var wire 1 2 w2 $end
$var wire 1 3 w1 $end
$var wire 1 4 out $end
$scope module mux0 $end
$var wire 1 - a $end
$var wire 1 . b $end
$var wire 1 3 out $end
$var wire 1 5 sel $end
$var wire 1 6 w1 $end
$var wire 1 7 w2 $end
$var wire 1 8 w3 $end
$upscope $end
$scope module mux1 $end
$var wire 1 / a $end
$var wire 1 0 b $end
$var wire 1 2 out $end
$var wire 1 9 sel $end
$var wire 1 : w1 $end
$var wire 1 ; w2 $end
$var wire 1 < w3 $end
$upscope $end
$scope module mux2 $end
$var wire 1 3 a $end
$var wire 1 2 b $end
$var wire 1 4 out $end
$var wire 1 = sel $end
$var wire 1 > w1 $end
$var wire 1 ? w2 $end
$var wire 1 @ w3 $end
$upscope $end
$upscope $end
$scope module m1 $end
$var wire 1 A a $end
$var wire 1 B b $end
$var wire 1 C c $end
$var wire 1 D d $end
$var wire 2 E sel [1:0] $end
$var wire 1 F w2 $end
$var wire 1 G w1 $end
$var wire 1 H out $end
$scope module mux0 $end
$var wire 1 A a $end
$var wire 1 B b $end
$var wire 1 G out $end
$var wire 1 I sel $end
$var wire 1 J w1 $end
$var wire 1 K w2 $end
$var wire 1 L w3 $end
$upscope $end
$scope module mux1 $end
$var wire 1 C a $end
$var wire 1 D b $end
$var wire 1 F out $end
$var wire 1 M sel $end
$var wire 1 N w1 $end
$var wire 1 O w2 $end
$var wire 1 P w3 $end
$upscope $end
$scope module mux2 $end
$var wire 1 G a $end
$var wire 1 F b $end
$var wire 1 H out $end
$var wire 1 Q sel $end
$var wire 1 R w1 $end
$var wire 1 S w2 $end
$var wire 1 T w3 $end
$upscope $end
$upscope $end
$scope module m10 $end
$var wire 1 U a $end
$var wire 1 V b $end
$var wire 1 W c $end
$var wire 1 X d $end
$var wire 2 Y sel [1:0] $end
$var wire 1 Z w2 $end
$var wire 1 [ w1 $end
$var wire 1 \ out $end
$scope module mux0 $end
$var wire 1 U a $end
$var wire 1 V b $end
$var wire 1 [ out $end
$var wire 1 ] sel $end
$var wire 1 ^ w1 $end
$var wire 1 _ w2 $end
$var wire 1 ` w3 $end
$upscope $end
$scope module mux1 $end
$var wire 1 W a $end
$var wire 1 X b $end
$var wire 1 Z out $end
$var wire 1 a sel $end
$var wire 1 b w1 $end
$var wire 1 c w2 $end
$var wire 1 d w3 $end
$upscope $end
$scope module mux2 $end
$var wire 1 [ a $end
$var wire 1 Z b $end
$var wire 1 \ out $end
$var wire 1 e sel $end
$var wire 1 f w1 $end
$var wire 1 g w2 $end
$var wire 1 h w3 $end
$upscope $end
$upscope $end
$scope module m11 $end
$var wire 1 i a $end
$var wire 1 j b $end
$var wire 1 k c $end
$var wire 1 l d $end
$var wire 2 m sel [1:0] $end
$var wire 1 n w2 $end
$var wire 1 o w1 $end
$var wire 1 p out $end
$scope module mux0 $end
$var wire 1 i a $end
$var wire 1 j b $end
$var wire 1 o out $end
$var wire 1 q sel $end
$var wire 1 r w1 $end
$var wire 1 s w2 $end
$var wire 1 t w3 $end
$upscope $end
$scope module mux1 $end
$var wire 1 k a $end
$var wire 1 l b $end
$var wire 1 n out $end
$var wire 1 u sel $end
$var wire 1 v w1 $end
$var wire 1 w w2 $end
$var wire 1 x w3 $end
$upscope $end
$scope module mux2 $end
$var wire 1 o a $end
$var wire 1 n b $end
$var wire 1 p out $end
$var wire 1 y sel $end
$var wire 1 z w1 $end
$var wire 1 { w2 $end
$var wire 1 | w3 $end
$upscope $end
$upscope $end
$scope module m12 $end
$var wire 1 } a $end
$var wire 1 ~ b $end
$var wire 1 !" c $end
$var wire 1 "" d $end
$var wire 2 #" sel [1:0] $end
$var wire 1 $" w2 $end
$var wire 1 %" w1 $end
$var wire 1 &" out $end
$scope module mux0 $end
$var wire 1 } a $end
$var wire 1 ~ b $end
$var wire 1 %" out $end
$var wire 1 '" sel $end
$var wire 1 (" w1 $end
$var wire 1 )" w2 $end
$var wire 1 *" w3 $end
$upscope $end
$scope module mux1 $end
$var wire 1 !" a $end
$var wire 1 "" b $end
$var wire 1 $" out $end
$var wire 1 +" sel $end
$var wire 1 ," w1 $end
$var wire 1 -" w2 $end
$var wire 1 ." w3 $end
$upscope $end
$scope module mux2 $end
$var wire 1 %" a $end
$var wire 1 $" b $end
$var wire 1 &" out $end
$var wire 1 /" sel $end
$var wire 1 0" w1 $end
$var wire 1 1" w2 $end
$var wire 1 2" w3 $end
$upscope $end
$upscope $end
$scope module m13 $end
$var wire 1 3" a $end
$var wire 1 4" b $end
$var wire 1 5" c $end
$var wire 1 6" d $end
$var wire 2 7" sel [1:0] $end
$var wire 1 8" w2 $end
$var wire 1 9" w1 $end
$var wire 1 :" out $end
$scope module mux0 $end
$var wire 1 3" a $end
$var wire 1 4" b $end
$var wire 1 9" out $end
$var wire 1 ;" sel $end
$var wire 1 <" w1 $end
$var wire 1 =" w2 $end
$var wire 1 >" w3 $end
$upscope $end
$scope module mux1 $end
$var wire 1 5" a $end
$var wire 1 6" b $end
$var wire 1 8" out $end
$var wire 1 ?" sel $end
$var wire 1 @" w1 $end
$var wire 1 A" w2 $end
$var wire 1 B" w3 $end
$upscope $end
$scope module mux2 $end
$var wire 1 9" a $end
$var wire 1 8" b $end
$var wire 1 :" out $end
$var wire 1 C" sel $end
$var wire 1 D" w1 $end
$var wire 1 E" w2 $end
$var wire 1 F" w3 $end
$upscope $end
$upscope $end
$scope module m14 $end
$var wire 1 G" a $end
$var wire 1 H" b $end
$var wire 1 I" c $end
$var wire 1 J" d $end
$var wire 2 K" sel [1:0] $end
$var wire 1 L" w2 $end
$var wire 1 M" w1 $end
$var wire 1 N" out $end
$scope module mux0 $end
$var wire 1 G" a $end
$var wire 1 H" b $end
$var wire 1 M" out $end
$var wire 1 O" sel $end
$var wire 1 P" w1 $end
$var wire 1 Q" w2 $end
$var wire 1 R" w3 $end
$upscope $end
$scope module mux1 $end
$var wire 1 I" a $end
$var wire 1 J" b $end
$var wire 1 L" out $end
$var wire 1 S" sel $end
$var wire 1 T" w1 $end
$var wire 1 U" w2 $end
$var wire 1 V" w3 $end
$upscope $end
$scope module mux2 $end
$var wire 1 M" a $end
$var wire 1 L" b $end
$var wire 1 N" out $end
$var wire 1 W" sel $end
$var wire 1 X" w1 $end
$var wire 1 Y" w2 $end
$var wire 1 Z" w3 $end
$upscope $end
$upscope $end
$scope module m15 $end
$var wire 1 [" a $end
$var wire 1 \" b $end
$var wire 1 ]" c $end
$var wire 1 ^" d $end
$var wire 2 _" sel [1:0] $end
$var wire 1 `" w2 $end
$var wire 1 a" w1 $end
$var wire 1 b" out $end
$scope module mux0 $end
$var wire 1 [" a $end
$var wire 1 \" b $end
$var wire 1 a" out $end
$var wire 1 c" sel $end
$var wire 1 d" w1 $end
$var wire 1 e" w2 $end
$var wire 1 f" w3 $end
$upscope $end
$scope module mux1 $end
$var wire 1 ]" a $end
$var wire 1 ^" b $end
$var wire 1 `" out $end
$var wire 1 g" sel $end
$var wire 1 h" w1 $end
$var wire 1 i" w2 $end
$var wire 1 j" w3 $end
$upscope $end
$scope module mux2 $end
$var wire 1 a" a $end
$var wire 1 `" b $end
$var wire 1 b" out $end
$var wire 1 k" sel $end
$var wire 1 l" w1 $end
$var wire 1 m" w2 $end
$var wire 1 n" w3 $end
$upscope $end
$upscope $end
$scope module m2 $end
$var wire 1 o" a $end
$var wire 1 p" b $end
$var wire 1 q" c $end
$var wire 1 r" d $end
$var wire 2 s" sel [1:0] $end
$var wire 1 t" w2 $end
$var wire 1 u" w1 $end
$var wire 1 v" out $end
$scope module mux0 $end
$var wire 1 o" a $end
$var wire 1 p" b $end
$var wire 1 u" out $end
$var wire 1 w" sel $end
$var wire 1 x" w1 $end
$var wire 1 y" w2 $end
$var wire 1 z" w3 $end
$upscope $end
$scope module mux1 $end
$var wire 1 q" a $end
$var wire 1 r" b $end
$var wire 1 t" out $end
$var wire 1 {" sel $end
$var wire 1 |" w1 $end
$var wire 1 }" w2 $end
$var wire 1 ~" w3 $end
$upscope $end
$scope module mux2 $end
$var wire 1 u" a $end
$var wire 1 t" b $end
$var wire 1 v" out $end
$var wire 1 !# sel $end
$var wire 1 "# w1 $end
$var wire 1 ## w2 $end
$var wire 1 $# w3 $end
$upscope $end
$upscope $end
$scope module m3 $end
$var wire 1 %# a $end
$var wire 1 &# b $end
$var wire 1 '# c $end
$var wire 1 (# d $end
$var wire 2 )# sel [1:0] $end
$var wire 1 *# w2 $end
$var wire 1 +# w1 $end
$var wire 1 ,# out $end
$scope module mux0 $end
$var wire 1 %# a $end
$var wire 1 &# b $end
$var wire 1 +# out $end
$var wire 1 -# sel $end
$var wire 1 .# w1 $end
$var wire 1 /# w2 $end
$var wire 1 0# w3 $end
$upscope $end
$scope module mux1 $end
$var wire 1 '# a $end
$var wire 1 (# b $end
$var wire 1 *# out $end
$var wire 1 1# sel $end
$var wire 1 2# w1 $end
$var wire 1 3# w2 $end
$var wire 1 4# w3 $end
$upscope $end
$scope module mux2 $end
$var wire 1 +# a $end
$var wire 1 *# b $end
$var wire 1 ,# out $end
$var wire 1 5# sel $end
$var wire 1 6# w1 $end
$var wire 1 7# w2 $end
$var wire 1 8# w3 $end
$upscope $end
$upscope $end
$scope module m4 $end
$var wire 1 9# a $end
$var wire 1 :# b $end
$var wire 1 ;# c $end
$var wire 1 <# d $end
$var wire 2 =# sel [1:0] $end
$var wire 1 ># w2 $end
$var wire 1 ?# w1 $end
$var wire 1 @# out $end
$scope module mux0 $end
$var wire 1 9# a $end
$var wire 1 :# b $end
$var wire 1 ?# out $end
$var wire 1 A# sel $end
$var wire 1 B# w1 $end
$var wire 1 C# w2 $end
$var wire 1 D# w3 $end
$upscope $end
$scope module mux1 $end
$var wire 1 ;# a $end
$var wire 1 <# b $end
$var wire 1 ># out $end
$var wire 1 E# sel $end
$var wire 1 F# w1 $end
$var wire 1 G# w2 $end
$var wire 1 H# w3 $end
$upscope $end
$scope module mux2 $end
$var wire 1 ?# a $end
$var wire 1 ># b $end
$var wire 1 @# out $end
$var wire 1 I# sel $end
$var wire 1 J# w1 $end
$var wire 1 K# w2 $end
$var wire 1 L# w3 $end
$upscope $end
$upscope $end
$scope module m5 $end
$var wire 1 M# a $end
$var wire 1 N# b $end
$var wire 1 O# c $end
$var wire 1 P# d $end
$var wire 2 Q# sel [1:0] $end
$var wire 1 R# w2 $end
$var wire 1 S# w1 $end
$var wire 1 T# out $end
$scope module mux0 $end
$var wire 1 M# a $end
$var wire 1 N# b $end
$var wire 1 S# out $end
$var wire 1 U# sel $end
$var wire 1 V# w1 $end
$var wire 1 W# w2 $end
$var wire 1 X# w3 $end
$upscope $end
$scope module mux1 $end
$var wire 1 O# a $end
$var wire 1 P# b $end
$var wire 1 R# out $end
$var wire 1 Y# sel $end
$var wire 1 Z# w1 $end
$var wire 1 [# w2 $end
$var wire 1 \# w3 $end
$upscope $end
$scope module mux2 $end
$var wire 1 S# a $end
$var wire 1 R# b $end
$var wire 1 T# out $end
$var wire 1 ]# sel $end
$var wire 1 ^# w1 $end
$var wire 1 _# w2 $end
$var wire 1 `# w3 $end
$upscope $end
$upscope $end
$scope module m6 $end
$var wire 1 a# a $end
$var wire 1 b# b $end
$var wire 1 c# c $end
$var wire 1 d# d $end
$var wire 2 e# sel [1:0] $end
$var wire 1 f# w2 $end
$var wire 1 g# w1 $end
$var wire 1 h# out $end
$scope module mux0 $end
$var wire 1 a# a $end
$var wire 1 b# b $end
$var wire 1 g# out $end
$var wire 1 i# sel $end
$var wire 1 j# w1 $end
$var wire 1 k# w2 $end
$var wire 1 l# w3 $end
$upscope $end
$scope module mux1 $end
$var wire 1 c# a $end
$var wire 1 d# b $end
$var wire 1 f# out $end
$var wire 1 m# sel $end
$var wire 1 n# w1 $end
$var wire 1 o# w2 $end
$var wire 1 p# w3 $end
$upscope $end
$scope module mux2 $end
$var wire 1 g# a $end
$var wire 1 f# b $end
$var wire 1 h# out $end
$var wire 1 q# sel $end
$var wire 1 r# w1 $end
$var wire 1 s# w2 $end
$var wire 1 t# w3 $end
$upscope $end
$upscope $end
$scope module m7 $end
$var wire 1 u# a $end
$var wire 1 v# b $end
$var wire 1 w# c $end
$var wire 1 x# d $end
$var wire 2 y# sel [1:0] $end
$var wire 1 z# w2 $end
$var wire 1 {# w1 $end
$var wire 1 |# out $end
$scope module mux0 $end
$var wire 1 u# a $end
$var wire 1 v# b $end
$var wire 1 {# out $end
$var wire 1 }# sel $end
$var wire 1 ~# w1 $end
$var wire 1 !$ w2 $end
$var wire 1 "$ w3 $end
$upscope $end
$scope module mux1 $end
$var wire 1 w# a $end
$var wire 1 x# b $end
$var wire 1 z# out $end
$var wire 1 #$ sel $end
$var wire 1 $$ w1 $end
$var wire 1 %$ w2 $end
$var wire 1 &$ w3 $end
$upscope $end
$scope module mux2 $end
$var wire 1 {# a $end
$var wire 1 z# b $end
$var wire 1 |# out $end
$var wire 1 '$ sel $end
$var wire 1 ($ w1 $end
$var wire 1 )$ w2 $end
$var wire 1 *$ w3 $end
$upscope $end
$upscope $end
$scope module m8 $end
$var wire 1 +$ a $end
$var wire 1 ,$ b $end
$var wire 1 -$ c $end
$var wire 1 .$ d $end
$var wire 2 /$ sel [1:0] $end
$var wire 1 0$ w2 $end
$var wire 1 1$ w1 $end
$var wire 1 2$ out $end
$scope module mux0 $end
$var wire 1 +$ a $end
$var wire 1 ,$ b $end
$var wire 1 1$ out $end
$var wire 1 3$ sel $end
$var wire 1 4$ w1 $end
$var wire 1 5$ w2 $end
$var wire 1 6$ w3 $end
$upscope $end
$scope module mux1 $end
$var wire 1 -$ a $end
$var wire 1 .$ b $end
$var wire 1 0$ out $end
$var wire 1 7$ sel $end
$var wire 1 8$ w1 $end
$var wire 1 9$ w2 $end
$var wire 1 :$ w3 $end
$upscope $end
$scope module mux2 $end
$var wire 1 1$ a $end
$var wire 1 0$ b $end
$var wire 1 2$ out $end
$var wire 1 ;$ sel $end
$var wire 1 <$ w1 $end
$var wire 1 =$ w2 $end
$var wire 1 >$ w3 $end
$upscope $end
$upscope $end
$scope module m9 $end
$var wire 1 ?$ a $end
$var wire 1 @$ b $end
$var wire 1 A$ c $end
$var wire 1 B$ d $end
$var wire 2 C$ sel [1:0] $end
$var wire 1 D$ w2 $end
$var wire 1 E$ w1 $end
$var wire 1 F$ out $end
$scope module mux0 $end
$var wire 1 ?$ a $end
$var wire 1 @$ b $end
$var wire 1 E$ out $end
$var wire 1 G$ sel $end
$var wire 1 H$ w1 $end
$var wire 1 I$ w2 $end
$var wire 1 J$ w3 $end
$upscope $end
$scope module mux1 $end
$var wire 1 A$ a $end
$var wire 1 B$ b $end
$var wire 1 D$ out $end
$var wire 1 K$ sel $end
$var wire 1 L$ w1 $end
$var wire 1 M$ w2 $end
$var wire 1 N$ w3 $end
$upscope $end
$scope module mux2 $end
$var wire 1 E$ a $end
$var wire 1 D$ b $end
$var wire 1 F$ out $end
$var wire 1 O$ sel $end
$var wire 1 P$ w1 $end
$var wire 1 Q$ w2 $end
$var wire 1 R$ w3 $end
$upscope $end
$upscope $end
$upscope $end
$upscope $end
$enddefinitions $end
$comment Show the parameter values. $end
$dumpall
$end
#0
$dumpvars
1R$
1Q$
1P$
0O$
1N$
1M$
1L$
0K$
1J$
1I$
1H$
0G$
0F$
0E$
0D$
b0 C$
0B$
0A$
0@$
0?$
1>$
1=$
1<$
0;$
1:$
19$
18$
07$
16$
15$
14$
03$
02$
01$
00$
b0 /$
0.$
0-$
0,$
0+$
1*$
1)$
1($
0'$
1&$
1%$
1$$
0#$
1"$
1!$
1~#
0}#
0|#
0{#
0z#
b0 y#
0x#
0w#
0v#
0u#
1t#
1s#
1r#
0q#
1p#
1o#
1n#
0m#
1l#
1k#
1j#
0i#
0h#
0g#
0f#
b0 e#
0d#
0c#
0b#
0a#
1`#
1_#
1^#
0]#
1\#
1[#
1Z#
0Y#
1X#
1W#
1V#
0U#
0T#
0S#
0R#
b0 Q#
0P#
0O#
0N#
0M#
1L#
1K#
1J#
0I#
1H#
1G#
1F#
0E#
1D#
1C#
1B#
0A#
0@#
0?#
0>#
b0 =#
0<#
0;#
0:#
09#
18#
17#
16#
05#
14#
13#
12#
01#
10#
1/#
1.#
0-#
0,#
0+#
0*#
b0 )#
0(#
0'#
0&#
0%#
1$#
1##
1"#
0!#
1~"
1}"
1|"
0{"
1z"
1y"
1x"
0w"
0v"
0u"
0t"
b0 s"
0r"
0q"
0p"
0o"
1n"
1m"
1l"
0k"
1j"
1i"
1h"
0g"
1f"
1e"
1d"
0c"
0b"
0a"
0`"
b0 _"
0^"
0]"
0\"
0["
1Z"
1Y"
1X"
0W"
1V"
1U"
1T"
0S"
1R"
1Q"
1P"
0O"
0N"
0M"
0L"
b0 K"
0J"
0I"
0H"
0G"
1F"
1E"
1D"
0C"
1B"
1A"
1@"
0?"
1>"
1="
1<"
0;"
0:"
09"
08"
b0 7"
06"
05"
04"
03"
12"
11"
10"
0/"
1."
1-"
1,"
0+"
1*"
1)"
1("
0'"
0&"
0%"
0$"
b0 #"
0""
0!"
0~
0}
1|
1{
1z
0y
1x
1w
1v
0u
1t
1s
1r
0q
0p
0o
0n
b0 m
0l
0k
0j
0i
1h
1g
1f
0e
1d
1c
1b
0a
1`
1_
1^
0]
0\
0[
0Z
b0 Y
0X
0W
0V
0U
1T
1S
1R
0Q
1P
1O
1N
0M
1L
1K
1J
0I
0H
0G
0F
b0 E
0D
0C
0B
0A
1@
1?
1>
0=
1<
1;
1:
09
18
17
16
05
04
03
02
b0 1
00
0/
0.
0-
b0 ,
b0 +
b0 *
b0 )
b0 (
b0 '
b0 &
b0 %
b0 $
b0 #
b0 "
b0 !
$end
#1
14
1H
1T#
1F$
1,#
1@#
1h#
0|#
02$
1:"
1N"
b110001001111011 !
b110001001111011 ,
0b"
0>
0R
0^#
0P$
06#
0J#
0r#
1($
1<$
0D"
0X"
1l"
1>#
1z#
1Z
1n
1$"
1`"
12
1F
0*#
0f#
00$
08"
0L"
13
1G
1S#
1E$
1+#
1?#
1g#
0{#
01$
19"
1M"
0a"
08
0<
0L
0P
0`
0d
0t
0x
0*"
0."
0>"
0B"
0R"
0V"
0f"
0j"
0z"
0~"
00#
04#
0D#
0H#
0X#
0\#
0l#
0p#
0"$
0&$
06$
0:$
0J$
0N$
0;
0O
0G#
0%$
0c
0w
0-"
0i"
1:
1N
12#
1n#
18$
1@"
1T"
07
0K
0/#
0C#
0W#
0k#
0I$
0="
0Q"
1.#
1B#
1j#
1~#
14$
1<"
1P"
1d"
15
19
1I
1M
1]
1a
1q
1u
1'"
1+"
1;"
1?"
1O"
1S"
1c"
1g"
1w"
1{"
1-#
11#
1A#
1E#
1U#
1Y#
1i#
1m#
1}#
1#$
13$
17$
1G$
1K$
10
1D
1<#
1x#
1X
1l
1""
1^"
1/
1C
1'#
1c#
1-$
15"
1I"
1.
1B
1&#
1:#
1N#
1b#
1@$
14"
1H"
1%#
19#
1a#
1u#
1+$
13"
1G"
1["
b1 &
b1 +
b1 1
b1 E
b1 Y
b1 m
b1 #"
b1 7"
b1 K"
b1 _"
b1 s"
b1 )#
b1 =#
b1 Q#
b1 e#
b1 y#
b1 /$
b1 C$
b1001110010010011 %
b1001110010010011 *
b110000101001011 $
b110000101001011 )
b110001001111011 #
b110001001111011 (
b1110000111011000 "
b1110000111011000 '
#2
04
0H
0@#
0T#
0h#
1\
1p
1&"
b101111000001000 !
b101111000001000 ,
0:"
1>
1R
1J#
1^#
1r#
0f
0z
00"
1D"
0>#
1R#
1D$
0n
18"
0`"
03
0G
0?#
0S#
0g#
1[
1o
1%"
09"
1G#
0[#
0M$
1w
0A"
1i"
17
1K
1C#
1W#
1k#
0_
0s
0)"
1="
0<#
1P#
1B$
0l
16"
0^"
1q"
0'#
1;#
1O#
0c#
1w#
1W
05"
1]"
0.
0B
0:#
0N#
0b#
1V
1j
1~
04"
1A
0%#
0a#
0+$
1i
b11011010100011 %
b11011010100011 *
b1100010110110111 $
b1100010110110111 )
b101111000001000 #
b101111000001000 (
b1110100010010010 "
b1110100010010010 '
#3
1:"
1b"
1@#
1T#
1h#
12$
0\
0D"
0l"
0J#
0^#
0r#
0<$
0F$
1p
b1110100101111000 !
b1110100101111000 ,
0&"
1f
19"
1a"
1?#
1>#
1S#
1g#
11$
10$
1P$
0z
10"
02
0N
0[
0b
0r
0$"
0<"
0P"
0d"
0.#
0B#
0F#
0V#
0R#
0j#
0z#
04$
08$
0E$
0L$
1F
1D$
1Z
08"
1o
0%"
18
1;
1<
1L
1P
1_
1`
1d
1t
1x
1*"
1-"
1."
1>"
1B"
1Q"
1R"
1V"
1f"
1j"
1z"
1~"
1/#
10#
14#
1D#
1H#
1X#
1[#
1\#
1l#
1p#
1"$
1%$
1&$
16$
1:$
1I$
1J$
1N$
1O
1M$
1c
1A"
1s
1)"
05
09
0I
0M
0]
0a
0q
0u
0'"
0+"
0;"
0?"
0O"
0S"
0c"
0g"
0w"
0{"
0-#
01#
0A#
0E#
0U#
0Y#
0i#
0m#
0}#
0#$
03$
07$
0G$
0K$
0D
1r"
1(#
1<#
1d#
0B$
0X
1l
06"
1J"
1^"
0/
0q"
0O#
0w#
1A$
0I"
0]"
1.
1:#
1N#
1,$
0j
0~
1\"
0A
1%#
1M#
1a#
0u#
1+$
b0 &
b0 +
b0 1
b0 E
b0 Y
b0 m
b0 #"
b0 7"
b0 K"
b0 _"
b0 s"
b0 )#
b0 =#
b0 Q#
b0 e#
b0 y#
b0 /$
b0 C$
b1101100011111101 %
b1101100011111101 *
b11100010010 $
b11100010010 )
b1100011100111001 #
b1100011100111001 (
b1110100101111000 "
b1110100101111000 '
#4
0b"
1\
1l"
04
0v"
0@#
0|#
02$
b110110001101000 !
b110110001101000 ,
0F$
0f
0Z
0a"
1>
1"#
1J#
1($
1<$
1P$
1[
1b
1r
1$"
1<"
1P"
1L"
1d"
1t"
1j#
1L$
0F
0R#
1f#
1z#
1`"
03
0u"
0?#
0{#
01$
0E$
08
0<
0L
0P
0_
0`
0d
0t
0x
0*"
0-"
0."
0>"
0B"
0Q"
0R"
0U"
0V"
0f"
0i"
0j"
0z"
0}"
0~"
0/#
00#
04#
0D#
0G#
0H#
0W#
0X#
0\#
0l#
0o#
0p#
0"$
0%$
0&$
06$
0:$
0J$
0N$
09$
0M$
1N
1F#
1Z#
1n#
1$$
18$
1h"
0k#
0s
0="
16
1x"
1.#
1B#
1V#
1~#
14$
1H$
15
19
1I
1M
1]
1a
1q
1u
1'"
1+"
1;"
1?"
1O"
1S"
1c"
1g"
1w"
1{"
1-#
11#
1A#
1E#
1U#
1Y#
1i#
1m#
1}#
1#$
13$
17$
1G$
1K$
00
0(#
0P#
1.$
1B$
0l
0C
0;#
1O#
1c#
1w#
0-$
1]"
0.
0:#
1b#
0,$
0@$
1j
14"
0\"
1-
1o"
0%#
09#
0M#
1u#
0+$
1?$
b1 &
b1 +
b1 1
b1 E
b1 Y
b1 m
b1 #"
b1 7"
b1 K"
b1 _"
b1 s"
b1 )#
b1 =#
b1 Q#
b1 e#
b1 y#
b1 /$
b1 C$
b1101001111010100 %
b1101001111010100 *
b1000011011100000 $
b1000011011100000 )
b110110001101000 #
b110110001101000 (
b1110101011000101 "
b1110101011000101 '
#5
14
0?
0g
0{
0_#
0h#
13
12
1G
1Z
1\
1n
1p
0:"
1a"
0,#
1R#
1T#
06
0:
0J
0^
0b
1f
0r
0v
1z
0&"
0<"
1D"
0P"
0T"
1X"
0d"
0h"
1b"
0v"
16#
0@#
0V#
0Z#
1^#
0j#
0f#
1r#
0|#
02$
0L$
b1100111000100001 !
b1100111000100001 ,
1F$
0t"
0>#
0z#
00$
0$"
0+#
1S#
1M"
18
1<
0@
1L
1P
0T
1_
1`
1d
0h
1s
1t
1x
0|
1*"
1."
11"
02"
1="
1>"
1B"
0F"
1R"
1U"
1V"
0Y"
0Z"
1f"
1i"
1j"
0m"
0n"
1z"
1~"
1##
0$#
10#
14#
08#
1D#
1H#
1K#
0L#
1X#
1\#
0`#
1k#
1l#
1o#
1p#
1s#
0t#
1"$
1&$
1)$
0*$
16$
1:$
1=$
0>$
1J$
1M$
1N$
0Q$
0R$
1}"
1G#
1%$
19$
1-"
1/#
1W#
1Q"
05
09
1=
0I
0M
1Q
0]
0a
1e
0q
0u
1y
0'"
0+"
1/"
0;"
0?"
1C"
0O"
0S"
1W"
0c"
0g"
1k"
0w"
0{"
1!#
0-#
01#
15#
0A#
0E#
1I#
0U#
0Y#
1]#
0i#
0m#
1q#
0}#
0#$
1'$
03$
07$
1;$
0G$
0K$
1O$
0r"
1(#
0<#
0x#
0.$
1X
0""
16"
1/
0c#
0w#
1k
1I"
1.
1B
1p"
0&#
0N#
1v#
1,$
1@$
0H"
1\"
1A
0o"
1M#
0u#
0?$
1U
b10 &
b10 +
b10 1
b10 E
b10 Y
b10 m
b10 #"
b10 7"
b10 K"
b10 _"
b10 s"
b10 )#
b10 =#
b10 Q#
b10 e#
b10 y#
b10 /$
b10 C$
b1110011001001000 %
b1110011001001000 *
b1100111000100001 $
b1100111000100001 )
b1010111111000111 #
b1010111111000111 (
b1110110001100011 "
b1110110001100011 '
#6
1&"
1:"
1v"
1,#
1@#
1h#
12$
04
0\
0p
00"
0D"
0X"
0l"
0"#
06#
0J#
0^#
0r#
0<$
b1111000101111100 !
b1111000101111100 ,
0F$
0R#
1z#
10$
0Z
0n
18"
0`"
03
0G
1u"
1+#
1?#
11$
0[
0o
1%"
1?
1@
1T
1g
1h
1{
1|
12"
1F"
1Y"
1Z"
1m"
1n"
1$#
18#
1L#
1_#
1`#
1t#
1*$
1>$
1Q$
1R$
1Z#
0$$
08$
1b
1v
0@"
1h"
16
1J
0x"
0.#
0B#
04$
1^
1r
0("
0=
0Q
0e
0y
0/"
0C"
0W"
0k"
0!#
05#
0I#
0]#
0q#
0'$
0;$
0O$
10
1r"
0(#
1<#
0X
1l
1""
06"
0J"
0O#
1w#
1-$
0W
0k
15"
0]"
0.
0p"
1&#
1N#
0v#
0j
04"
0-
0A
1o"
1%#
19#
1+$
0U
0i
1}
b0 &
b0 +
b0 1
b0 E
b0 Y
b0 m
b0 #"
b0 7"
b0 K"
b0 _"
b0 s"
b0 )#
b0 =#
b0 Q#
b0 e#
b0 y#
b0 /$
b0 C$
b1001101001010101 %
b1001101001010101 *
b110001110000001 $
b110001110000001 )
b1000011101101010 #
b1000011101101010 (
b1111000101111100 "
b1111000101111100 '
#7
1p
0N"
0,#
0h#
0##
0K#
0_#
0{
01"
0m"
14
10"
1D"
1X"
1l"
1"#
16#
1J#
1^#
1r#
1|#
1<$
b1011101110110101 !
b1011101110110101 ,
1F$
1t"
1>#
1R#
1n
1$"
0L"
1`"
1G
0S#
0g#
1{#
01$
1E$
0?
0@
0T
0h
0|
02"
0E"
0F"
1Y"
0Z"
0n"
0$#
08#
0L#
0`#
0t#
0)$
0*$
0=$
0>$
0Q$
0R$
0|"
0F#
0Z#
0v
0,"
1T"
0h"
0J
1V#
1j#
0~#
14$
0H$
1=
1Q
1e
1y
1/"
1C"
1W"
1k"
1!#
15#
1I#
1]#
1q#
1'$
1;$
1O$
00
1D
1(#
1x#
1.$
0""
16"
1J"
0^"
1q"
1;#
1O#
1k
1!"
0I"
1]"
1.
0B
1p"
1:#
0N#
0b#
0@$
0V
1H"
1A
0M#
0a#
1u#
0+$
1?$
b10 &
b10 +
b10 1
b10 E
b10 Y
b10 m
b10 #"
b10 7"
b10 K"
b10 _"
b10 s"
b10 )#
b10 =#
b10 Q#
b10 e#
b10 y#
b10 /$
b10 C$
b110101111011110 %
b110101111011110 *
b1011101110110101 $
b1011101110110101 )
b1100000100011101 #
b1100000100011101 (
b1111001010011110 "
b1111001010011110 '
#8
04
1H
1,#
0T#
1\
0p
b1001011110011110 !
b1001011110011110 ,
0:"
1?
0S
07#
1_#
0g
1{
1E"
02
1F
1*#
0R#
1Z
0n
08"
13
0G
0+#
0?#
1g#
1:
0N
02#
1Z#
0b
1v
1@"
06
1J
1.#
1B#
0j#
10
0<#
0d#
1X
1""
06"
1^"
0/
1C
1'#
0O#
1W
0k
05"
0.
0p"
0&#
0,$
1@$
1j
0\"
1-
0A
0%#
09#
1a#
b1101111110001111 %
b1101111110001111 *
b1001011110011110 $
b1001011110011110 )
b100101000010000 #
b100101000010000 (
b1111001011000101 "
b1111001011000101 '
